{
  "development": {
    "username": "postgres",
    "password": "postgres",
    "database": "lougehcar",
    "host": "localhost",
    "dialect": "postgres",
    "logging": false
  },
  "test": {
    "username": "postgres",
    "password": "postgres",
    "database": "lougehcar_test",
    "host": "127.0.0.1",
    "dialect": "postgres",
    "logging": false
  },
  "production": {
    "username": "postgres",
    "password": "postgres",
    "database": "lougehcar_prod",
    "host": "127.0.0.1",
    "dialect": "postgres",
    "logging": false
  }
}